7.30.0.1 - F57475	Phase (Change) 1- Enable MCP processing to receive SCP data  
7.31.0.1 - F60762	9 series BIN Support - CPF
7.31.0.2 - F34612	Acquirer 1740 fee mapping


         - F58423     - CPF - Corporate Control invoice changes
                        S363512 - Prepaid settlement method for MCP invoicing





