Start of Bursting Process
Start of Process Request ID1
Start of Process Document
   Request Index 1
   Document Index 1
   ========End of Process Document
   Outputs :[/app/cpr_data/scripts/bursting/output/T180115USD82076.pdf]
Start of Process Document
   Request Index 1
   Document Index 1
   ========End of Process Document
   Outputs :[/app/cpr_data/scripts/bursting/output/T180115USD69167.pdf]
Start of Process Document
   Request Index 1
   Document Index 1
   ========End of Process Document
   Outputs :[/app/cpr_data/scripts/bursting/output/T180115EUR50387.pdf]
Start of Process Document
   Request Index 1
   Document Index 1
   ========End of Process Document
   Outputs :[/app/cpr_data/scripts/bursting/output/T180115AUD32814.pdf]
Start of Process Document
   Request Index 1
   Document Index 1
   ========End of Process Document
   Outputs :[/app/cpr_data/scripts/bursting/output/T180115EUR32814.pdf]
Start of Process Document
   Request Index 1
   Document Index 1
   ========End of Process Document
   Outputs :[/app/cpr_data/scripts/bursting/output/T180115GBP32814.pdf]
Start of Process Document
   Request Index 1
   Document Index 1
   ========End of Process Document
   Outputs :[/app/cpr_data/scripts/bursting/output/T180115NZD32814.pdf]
Start of Process Document
   Request Index 1
   Document Index 1
   ========End of Process Document
   Outputs :[/app/cpr_data/scripts/bursting/output/T180115USD32814.pdf]
Start of Process Document
   Request Index 1
   Document Index 1
   ========End of Process Document
   Outputs :[/app/cpr_data/scripts/bursting/output/T180115ZAR32814.pdf]
Start of Process Document
   Request Index 1
   Document Index 1
   ========End of Process Document
   Outputs :[/app/cpr_data/scripts/bursting/output/T180115JPY63510.pdf]
Start of Process Document
   Request Index 1
   Document Index 1
   ========End of Process Document
   Outputs :[/app/cpr_data/scripts/bursting/output/T180115GBP72787.pdf]
Start of Process Document
   Request Index 1
   Document Index 1
   ========End of Process Document
   Outputs :[/app/cpr_data/scripts/bursting/output/T180115EUR63548-C.pdf]
Start of Process Document
   Request Index 1
   Document Index 1
   ========End of Process Document
   Outputs :[/app/cpr_data/scripts/bursting/output/T180115GBP34504.pdf]
Start of Process Document
   Request Index 1
   Document Index 1
   ========End of Process Document
   Outputs :[/app/cpr_data/scripts/bursting/output/T180115GBP38632.pdf]
Start of Process Document
   Request Index 1
   Document Index 1
   ========End of Process Document
   Outputs :[/app/cpr_data/scripts/bursting/output/T180115AUD32090.pdf]
Start of Process Document
   Request Index 1
   Document Index 1
   ========End of Process Document
   Outputs :[/app/cpr_data/scripts/bursting/output/T180115USD49982-C.pdf]
Start of Process Document
   Request Index 1
   Document Index 1
   ========End of Process Document
   Outputs :[/app/cpr_data/scripts/bursting/output/T180115EUR77395.pdf]
Start of Process Document
   Request Index 1
   Document Index 1
   ========End of Process Document
   Outputs :[/app/cpr_data/scripts/bursting/output/T180115GBP77395.pdf]
Start of Process Document
   Request Index 1
   Document Index 1
   ========End of Process Document
   Outputs :[/app/cpr_data/scripts/bursting/output/T180115USD77395.pdf]
Start of Process Document
   Request Index 1
   Document Index 1
   ========End of Process Document
   Outputs :[/app/cpr_data/scripts/bursting/output/T180115GBP35655.pdf]
Start of Process Document
   Request Index 1
   Document Index 1
   ========End of Process Document
   Outputs :[/app/cpr_data/scripts/bursting/output/T180115USD35655.pdf]
Start of Process Document
   Request Index 1
   Document Index 1
   ========End of Process Document
   Outputs :[/app/cpr_data/scripts/bursting/output/T180115USD61990-C.pdf]
Start of Process Document
   Request Index 1
   Document Index 1
   ========End of Process Document
   Outputs :[/app/cpr_data/scripts/bursting/output/T180115USD32802-C.pdf]
Start of Process Document
   Request Index 1
   Document Index 1
   ========End of Process Document
   Outputs :[/app/cpr_data/scripts/bursting/output/T180115EUR39124.pdf]
Start of Process Document
   Request Index 1
   Document Index 1
   ========End of Process Document
   Outputs :[/app/cpr_data/scripts/bursting/output/T180115USD39124.pdf]
Start of Process Document
   Request Index 1
   Document Index 1
   ========End of Process Document
   Outputs :[/app/cpr_data/scripts/bursting/output/T180115GBP36965.pdf]
Start of Process Document
   Request Index 1
   Document Index 1
   ========End of Process Document
   Outputs :[/app/cpr_data/scripts/bursting/output/T180115EUR32806.pdf]
Start of Process Document
   Request Index 1
   Document Index 1
   ========End of Process Document
   Outputs :[/app/cpr_data/scripts/bursting/output/T180115USD32806.pdf]
Start of Process Document
   Request Index 1
   Document Index 1
   ========End of Process Document
   Outputs :[/app/cpr_data/scripts/bursting/output/T180115EUR32831.pdf]
Start of Process Document
   Request Index 1
   Document Index 1
   ========End of Process Document
   Outputs :[/app/cpr_data/scripts/bursting/output/T180115GBP37097.pdf]
Start of Process Document
   Request Index 1
   Document Index 1
   ========End of Process Document
   Outputs :[/app/cpr_data/scripts/bursting/output/T180115USD73362.pdf]
Start of Process Document
   Request Index 1
   Document Index 1
   ========End of Process Document
   Outputs :[/app/cpr_data/scripts/bursting/output/T180115EUR35532.pdf]
Start of Process Document
   Request Index 1
   Document Index 1
   ========End of Process Document
   Outputs :[/app/cpr_data/scripts/bursting/output/T180115USD35532.pdf]
Start of Process Document
   Request Index 1
   Document Index 1
   ========End of Process Document
   Outputs :[/app/cpr_data/scripts/bursting/output/T180115USD69169.pdf]
Start of Process Document
   Request Index 1
   Document Index 1
   ========End of Process Document
   Outputs :[/app/cpr_data/scripts/bursting/output/T180115EUR78250.pdf]
Start of Process Document
   Request Index 1
   Document Index 1
   ========End of Process Document
   Outputs :[/app/cpr_data/scripts/bursting/output/T180115EUR81772.pdf]
Start of Process Document
   Request Index 1
   Document Index 1
   ========End of Process Document
   Outputs :[/app/cpr_data/scripts/bursting/output/T180115GBP81772.pdf]
Start of Process Document
   Request Index 1
   Document Index 1
   ========End of Process Document
   Outputs :[/app/cpr_data/scripts/bursting/output/T180115USD81772.pdf]
Start of Process Document
   Request Index 1
   Document Index 1
   ========End of Process Document
   Outputs :[/app/cpr_data/scripts/bursting/output/T180115EUR35618.pdf]
Start of Process Document
   Request Index 1
   Document Index 1
   ========End of Process Document
   Outputs :[/app/cpr_data/scripts/bursting/output/T180115USD35618.pdf]
Start of Process Document
   Request Index 1
   Document Index 1
   ========End of Process Document
   Outputs :[/app/cpr_data/scripts/bursting/output/T180115EUR37198.pdf]
Start of Process Document
   Request Index 1
   Document Index 1
   ========End of Process Document
   Outputs :[/app/cpr_data/scripts/bursting/output/T180115GBP37198.pdf]
Start of Process Document
   Request Index 1
   Document Index 1
   ========End of Process Document
   Outputs :[/app/cpr_data/scripts/bursting/output/T180115USD37198.pdf]
Start of Process Document
   Request Index 1
   Document Index 1
   ========End of Process Document
   Outputs :[/app/cpr_data/scripts/bursting/output/T180115EUR30877.pdf]
Start of Process Document
   Request Index 1
   Document Index 1
   ========End of Process Document
   Outputs :[/app/cpr_data/scripts/bursting/output/T180115GBP30877.pdf]
Start of Process Document
   Request Index 1
   Document Index 1
   ========End of Process Document
   Outputs :[/app/cpr_data/scripts/bursting/output/T180115USD30877.pdf]
Start of Process Document
   Request Index 1
   Document Index 1
   ========End of Process Document
   Outputs :[/app/cpr_data/scripts/bursting/output/T180115GBP63116.pdf]
Start of Process Document
   Request Index 1
   Document Index 1
   ========End of Process Document
   Outputs :[/app/cpr_data/scripts/bursting/output/T180115GBP35566.pdf]
Start of Process Document
   Request Index 1
   Document Index 1
   ========End of Process Document
   Outputs :[/app/cpr_data/scripts/bursting/output/T180115EUR69631.pdf]
Start of Process Document
   Request Index 1
   Document Index 1
   ========End of Process Document
   Outputs :[/app/cpr_data/scripts/bursting/output/T180115JPY69631.pdf]
Start of Process Document
   Request Index 1
   Document Index 1
   ========End of Process Document
   Outputs :[/app/cpr_data/scripts/bursting/output/T180115JPY51635.pdf]
Start of Process Document
   Request Index 1
   Document Index 1
   ========End of Process Document
   Outputs :[/app/cpr_data/scripts/bursting/output/T180115GBP36166.pdf]
Start of Process Document
   Request Index 1
   Document Index 1
   ========End of Process Document
   Outputs :[/app/cpr_data/scripts/bursting/output/T180115GBP62110.pdf]
Start of Process Document
   Request Index 1
   Document Index 1
   ========End of Process Document
   Outputs :[/app/cpr_data/scripts/bursting/output/T180115USD82623.pdf]
Start of Process Document
   Request Index 1
   Document Index 1
   ========End of Process Document
   Outputs :[/app/cpr_data/scripts/bursting/output/T180115GBP78448.pdf]
Start of Process Document
   Request Index 1
   Document Index 1
   ========End of Process Document
   Outputs :[/app/cpr_data/scripts/bursting/output/T180115AUD78533.pdf]
Start of Process Document
   Request Index 1
   Document Index 1
   ========End of Process Document
   Outputs :[/app/cpr_data/scripts/bursting/output/T180115CAD78533.pdf]
Start of Process Document
   Request Index 1
   Document Index 1
   ========End of Process Document
   Outputs :[/app/cpr_data/scripts/bursting/output/T180115EUR78533.pdf]
Start of Process Document
   Request Index 1
   Document Index 1
   ========End of Process Document
   Outputs :[/app/cpr_data/scripts/bursting/output/T180115GBP78533.pdf]
Start of Process Document
   Request Index 1
   Document Index 1
   ========End of Process Document
   Outputs :[/app/cpr_data/scripts/bursting/output/T180115NZD78533.pdf]
Start of Process Document
   Request Index 1
   Document Index 1
   ========End of Process Document
   Outputs :[/app/cpr_data/scripts/bursting/output/T180115USD78533.pdf]
Start of Process Document
   Request Index 1
   Document Index 1
   ========End of Process Document
   Outputs :[/app/cpr_data/scripts/bursting/output/T180115ZAR78533.pdf]
Start of Process Document
   Request Index 1
   Document Index 1
   ========End of Process Document
   Outputs :[/app/cpr_data/scripts/bursting/output/T180115JPY78503.pdf]
Start of Process Document
   Request Index 1
   Document Index 1
   ========End of Process Document
   Outputs :[/app/cpr_data/scripts/bursting/output/T180115USD78503.pdf]
Start of Process Document
   Request Index 1
   Document Index 1
   ========End of Process Document
   Outputs :[/app/cpr_data/scripts/bursting/output/T180115CAD78406.pdf]
Start of Process Document
   Request Index 1
   Document Index 1
   ========End of Process Document
   Outputs :[/app/cpr_data/scripts/bursting/output/T180115EUR78406.pdf]
Start of Process Document
   Request Index 1
   Document Index 1
   ========End of Process Document
   Outputs :[/app/cpr_data/scripts/bursting/output/T180115GBP78406.pdf]
Start of Process Document
   Request Index 1
   Document Index 1
   ========End of Process Document
   Outputs :[/app/cpr_data/scripts/bursting/output/T180115USD78406.pdf]
Start of Process Document
   Request Index 1
   Document Index 1
   ========End of Process Document
   Outputs :[/app/cpr_data/scripts/bursting/output/T180115GBP38482.pdf]
Start of Process Document
   Request Index 1
   Document Index 1
   ========End of Process Document
   Outputs :[/app/cpr_data/scripts/bursting/output/T180115GBP39340.pdf]
Start of Process Document
   Request Index 1
   Document Index 1
   ========End of Process Document
   Outputs :[/app/cpr_data/scripts/bursting/output/T180115USD76808.pdf]
Start of Process Document
   Request Index 1
   Document Index 1
   ========End of Process Document
   Outputs :[/app/cpr_data/scripts/bursting/output/T180115USD75232.pdf]
Start of Process Document
   Request Index 1
   Document Index 1
   ========End of Process Document
   Outputs :[/app/cpr_data/scripts/bursting/output/T180115USD61172-C.pdf]
Start of Process Document
   Request Index 1
   Document Index 1
   ========End of Process Document
   Outputs :[/app/cpr_data/scripts/bursting/output/T180115USD77050.pdf]
Start of Process Document
   Request Index 1
   Document Index 1
   ========End of Process Document
   Outputs :[/app/cpr_data/scripts/bursting/output/T180115EUR82495.pdf]
Start of Process Document
   Request Index 1
   Document Index 1
   ========End of Process Document
   Outputs :[/app/cpr_data/scripts/bursting/output/T180115GBP73371.pdf]
Start of Process Document
   Request Index 1
   Document Index 1
   ========End of Process Document
   Outputs :[/app/cpr_data/scripts/bursting/output/T180115USD76925.pdf]
Start of Process Document
   Request Index 1
   Document Index 1
   ========End of Process Document
   Outputs :[/app/cpr_data/scripts/bursting/output/T180115AUD36460.pdf]
Start of Process Document
   Request Index 1
   Document Index 1
   ========End of Process Document
   Outputs :[/app/cpr_data/scripts/bursting/output/T180115EUR36460.pdf]
Start of Process Document
   Request Index 1
   Document Index 1
   ========End of Process Document
   Outputs :[/app/cpr_data/scripts/bursting/output/T180115GBP36460.pdf]
Start of Process Document
   Request Index 1
   Document Index 1
   ========End of Process Document
   Outputs :[/app/cpr_data/scripts/bursting/output/T180115USD36460.pdf]
Start of Process Document
   Request Index 1
   Document Index 1
   ========End of Process Document
   Outputs :[/app/cpr_data/scripts/bursting/output/T180115CAD81770.pdf]
Start of Process Document
   Request Index 1
   Document Index 1
   ========End of Process Document
   Outputs :[/app/cpr_data/scripts/bursting/output/T180115EUR81770.pdf]
Start of Process Document
   Request Index 1
   Document Index 1
   ========End of Process Document
   Outputs :[/app/cpr_data/scripts/bursting/output/T180115GBP81770.pdf]
Start of Process Document
   Request Index 1
   Document Index 1
   ========End of Process Document
   Outputs :[/app/cpr_data/scripts/bursting/output/T180115USD81770.pdf]
Start of Process Document
   Request Index 1
   Document Index 1
   ========End of Process Document
   Outputs :[/app/cpr_data/scripts/bursting/output/T180115USD96525.pdf]
Start of Process Document
   Request Index 1
   Document Index 1
   ========End of Process Document
   Outputs :[/app/cpr_data/scripts/bursting/output/T180115USD78205.pdf]
Start of Process Document
   Request Index 1
   Document Index 1
   ========End of Process Document
   Outputs :[/app/cpr_data/scripts/bursting/output/T180115USD95329.pdf]
Start of Process Document
   Request Index 1
   Document Index 1
   ========End of Process Document
   Outputs :[/app/cpr_data/scripts/bursting/output/T180115EUR32809.pdf]
Start of Process Document
   Request Index 1
   Document Index 1
   ========End of Process Document
   Outputs :[/app/cpr_data/scripts/bursting/output/T180115AUD57779.pdf]
Start of Process Document
   Request Index 1
   Document Index 1
   ========End of Process Document
   Outputs :[/app/cpr_data/scripts/bursting/output/T180115CAD57779.pdf]
Start of Process Document
   Request Index 1
   Document Index 1
   ========End of Process Document
   Outputs :[/app/cpr_data/scripts/bursting/output/T180115EUR57779.pdf]
Start of Process Document
   Request Index 1
   Document Index 1
   ========End of Process Document
   Outputs :[/app/cpr_data/scripts/bursting/output/T180115GBP57779.pdf]
Start of Process Document
   Request Index 1
   Document Index 1
   ========End of Process Document
   Outputs :[/app/cpr_data/scripts/bursting/output/T180115USD57779.pdf]
Start of Process Document
   Request Index 1
   Document Index 1
   ========End of Process Document
   Outputs :[/app/cpr_data/scripts/bursting/output/T180115ZAR57779.pdf]
Start of Process Document
   Request Index 1
   Document Index 1
   ========End of Process Document
   Outputs :[/app/cpr_data/scripts/bursting/output/T180115USD32807.pdf]
Start of Process Document
   Request Index 1
   Document Index 1
   ========End of Process Document
   Outputs :[/app/cpr_data/scripts/bursting/output/T180115GBP37026.pdf]
Start of Process Document
   Request Index 1
   Document Index 1
   ========End of Process Document
   Outputs :[/app/cpr_data/scripts/bursting/output/T180115GBP32821.pdf]
Start of Process Document
   Request Index 1
   Document Index 1
   ========End of Process Document
   Outputs :[/app/cpr_data/scripts/bursting/output/T180115USD32821.pdf]
Start of Process Document
   Request Index 1
   Document Index 1
   ========End of Process Document
   Outputs :[/app/cpr_data/scripts/bursting/output/T180115USD81755.pdf]
End of Process Request ID1
End of Bursting Process
